{
  "SB_CONFIG": {
    "NB": 3
  }, 
  "ZMQ_CONFIG": {
    "SG_ENTITY_PUB": "3001", 
    "SB_FIRST_ID": 1, 
    "GROUP_MGM_ID": "mgm_group", 
    "GROUP_DER_ID": "der_group", 
    "SG_COORD_PUB": "3000", 
    "SIMU_IP": "127.0.0.1", 
    "DER_FIRST_ID": 1000, 
    "MICROGRID_MANAGER_ID": 0, 
    "BROADCAST_ID": "all", 
    "GROUP_SB_ID": "sb_group"
  }, 
  "SIMULATION_PARAMETERS": {
    "ROUND_ROBIN_PLANNING": "ASC", 
    "PLANNING_FREQUENCY": 86400, 
    "PLANNING_MAX_MSG_PER_BUILD": 20, 
    "SHUTDOWN_SERVER_UPON_SIMULATION_END": true, 
    "DURATION": 86400,
    "TIME_STEP": 900, 
    "STARTING_DATE": 0
  }, 
  "SG_SIMULATION_CONFIG": {
    "AUTOMATED_SIMULATION": false, 
    "ARCHITECTURE_CENTRALIZED": false, 
    "TYPE_DR_SIMU": "GT", 
    "USE_BLOCKCHAIN": false
  }, 
  "INSTANCES": {
    "BUILT_IN": {
      "SB": 3,
      "DER": 0, 
      "MGM": 0
    }, 
    "EXTERNAL": [
      {
        "path": "../SB-simulator/", 
        "NB": 0,
        "param": {
          "unit": 11
        }, 
        "module": "run_sg_link", 
        "function_process": "spawn_smartbuilding_as_sg_entity"
      }
    ]
  }, 
  "GRID_MANAGER_CONFIG": {
    "NB": 0
  }, 
  "DER_CONFIG": {
    "NB": 0
  }
}